<?xml version="1.0" encoding="UTF-8" standalone="no"?>
<!-- Created with Inkscape (http://www.inkscape.org/) -->
<svg
   xmlns:xml="http://www.w3.org/XML/1998/namespace"
   xmlns:dc="http://purl.org/dc/elements/1.1/"
   xmlns:cc="http://web.resource.org/cc/"
   xmlns:rdf="http://www.w3.org/1999/02/22-rdf-syntax-ns#"
   xmlns:svg="http://www.w3.org/2000/svg"
   xmlns="http://www.w3.org/2000/svg"
   xmlns:xlink="http://www.w3.org/1999/xlink"
   xmlns:sodipodi="http://inkscape.sourceforge.net/DTD/sodipodi-0.dtd"
   xmlns:inkscape="http://www.inkscape.org/namespaces/inkscape"
   inkscape:export-ydpi="115.20000"
   inkscape:export-xdpi="115.20000"
   inkscape:export-filename="/home/drumm/template2.png"
   width="800px"
   height="600px"
   id="svg1531"
   sodipodi:version="0.32"
   inkscape:version="0.41"
   sodipodi:docbase="/home/drumm/drupal/oscon2005"
   sodipodi:docname="3.svg">
  <defs
     id="defs3" />
  <sodipodi:namedview
     inkscape:window-y="0"
     inkscape:window-x="0"
     inkscape:window-height="798"
     inkscape:window-width="1278"
     id="base"
     pagecolor="#ffffff"
     bordercolor="#666666"
     borderopacity="1.0"
     inkscape:pageopacity="0.0"
     inkscape:pageshadow="2"
     inkscape:zoom="1.0000000"
     inkscape:cx="442.78317"
     inkscape:cy="300.05029"
     inkscape:current-layer="layer1"
     inkscape:document-units="px" />
  <metadata
     id="metadata4">
    <rdf:RDF
       id="RDF5">
      <cc:Work
         rdf:about=""
         id="Work6">
        <dc:format
           id="format7">image/svg+xml</dc:format>
        <dc:type
           id="type9"
           rdf:resource="http://purl.org/dc/dcmitype/StillImage" />
      </cc:Work>
    </rdf:RDF>
  </metadata>
  <g
     id="layer1"
     inkscape:label="Layer 1"
     inkscape:groupmode="layer">
    <rect
       y="85.000000"
       x="0.0000000"
       height="515.00000"
       width="800.00000"
       id="rect4369"
       style="fill:#ffffff;fill-opacity:1.0000000;fill-rule:evenodd;stroke:none;stroke-width:3.0000000;stroke-linecap:butt;stroke-miterlimit:4.0000000;stroke-opacity:1.0000000" />
    <rect
       style="fill:#00598e;fill-opacity:1.0000000;fill-rule:evenodd;stroke:none;stroke-width:1.9700000;stroke-linecap:butt;stroke-linejoin:miter;stroke-miterlimit:4.0000000;stroke-opacity:1.0000000"
       id="rect1559"
       width="800.00000"
       height="113.00000"
       x="0.0000000"
       y="0.099998474" />
    <text
       xml:space="preserve"
       style="font-size:80.000000;font-style:normal;font-variant:normal;font-weight:normal;font-stretch:normal;fill:#ffffff;fill-opacity:1.0000000;stroke:none;stroke-width:1.0000000px;stroke-linecap:butt;stroke-linejoin:miter;stroke-opacity:1.0000000;font-family:Hit the Road;text-anchor:start;writing-mode:lr-tb"
       x="16"
       y="93"
       id="text1555"
       sodipodi:linespacing="100%"><tspan
         sodipodi:role="line"
         id="tspan1557"
         x="16.000000"
         y="93.000000">Now</tspan></text>
    <rect
       style="fill:#004975;fill-opacity:1.0000000;fill-rule:evenodd;stroke:none;stroke-width:1.9700000;stroke-miterlimit:4.0000000;stroke-opacity:1.0000000"
       id="rect3844"
       width="800.00000"
       height="6.0000000"
       x="0.0000000"
       y="111.00000" />
    <image
       y="149.00000"
       x="129.50000"
       id="image1389"
       height="379.68619"
       width="537.00000"
       sodipodi:absref="/home/drumm/drupal/oscon2005/after.png"
       xlink:href="after.png" />
    <rect
       style="stroke-opacity:1.0000000;stroke-miterlimit:4.0000000;stroke-linecap:butt;stroke-width:4.9317808;stroke:#575757;fill-rule:evenodd;fill-opacity:1.0000000;fill:none"
       id="rect2157"
       width="543.03625"
       height="387.10001"
       x="127.98189"
       y="146.95000" />
  </g>
</svg>
